<?xml version="1.0" encoding="utf-8"?>
<!DOCTYPE eagle SYSTEM "eagle.dtd">
<eagle version="8.4.3">
<drawing>
<settings>
<setting alwaysvectorfont="no"/>
<setting keepoldvectorfont="yes"/>
<setting verticaltext="up"/>
</settings>
<grid distance="0.1" unitdist="inch" unit="inch" style="lines" multiple="1" display="no" altdistance="0.01" altunitdist="inch" altunit="inch"/>
<layers>
<layer number="1" name="Top" color="4" fill="1" visible="yes" active="yes"/>
<layer number="16" name="Bottom" color="1" fill="1" visible="yes" active="yes"/>
<layer number="17" name="Pads" color="2" fill="1" visible="yes" active="yes"/>
<layer number="18" name="Vias" color="2" fill="1" visible="yes" active="yes"/>
<layer number="19" name="Unrouted" color="6" fill="1" visible="yes" active="yes"/>
<layer number="20" name="Dimension" color="15" fill="1" visible="yes" active="yes"/>
<layer number="21" name="tPlace" color="7" fill="1" visible="yes" active="yes"/>
<layer number="22" name="bPlace" color="7" fill="1" visible="yes" active="yes"/>
<layer number="23" name="tOrigins" color="15" fill="1" visible="yes" active="yes"/>
<layer number="24" name="bOrigins" color="15" fill="1" visible="yes" active="yes"/>
<layer number="25" name="tNames" color="7" fill="1" visible="yes" active="yes"/>
<layer number="26" name="bNames" color="7" fill="1" visible="yes" active="yes"/>
<layer number="27" name="tValues" color="7" fill="1" visible="yes" active="yes"/>
<layer number="28" name="bValues" color="7" fill="1" visible="yes" active="yes"/>
<layer number="29" name="tStop" color="7" fill="3" visible="no" active="yes"/>
<layer number="30" name="bStop" color="7" fill="6" visible="no" active="yes"/>
<layer number="31" name="tCream" color="7" fill="4" visible="no" active="yes"/>
<layer number="32" name="bCream" color="7" fill="5" visible="no" active="yes"/>
<layer number="33" name="tFinish" color="6" fill="3" visible="no" active="yes"/>
<layer number="34" name="bFinish" color="6" fill="6" visible="no" active="yes"/>
<layer number="35" name="tGlue" color="7" fill="4" visible="no" active="yes"/>
<layer number="36" name="bGlue" color="7" fill="5" visible="no" active="yes"/>
<layer number="37" name="tTest" color="7" fill="1" visible="no" active="yes"/>
<layer number="38" name="bTest" color="7" fill="1" visible="no" active="yes"/>
<layer number="39" name="tKeepout" color="4" fill="11" visible="yes" active="yes"/>
<layer number="40" name="bKeepout" color="1" fill="11" visible="yes" active="yes"/>
<layer number="41" name="tRestrict" color="4" fill="10" visible="yes" active="yes"/>
<layer number="42" name="bRestrict" color="1" fill="10" visible="yes" active="yes"/>
<layer number="43" name="vRestrict" color="2" fill="10" visible="yes" active="yes"/>
<layer number="44" name="Drills" color="7" fill="1" visible="no" active="yes"/>
<layer number="45" name="Holes" color="7" fill="1" visible="no" active="yes"/>
<layer number="46" name="Milling" color="3" fill="1" visible="no" active="yes"/>
<layer number="47" name="Measures" color="7" fill="1" visible="no" active="yes"/>
<layer number="48" name="Document" color="7" fill="1" visible="yes" active="yes"/>
<layer number="49" name="Reference" color="7" fill="1" visible="yes" active="yes"/>
<layer number="51" name="tDocu" color="7" fill="1" visible="yes" active="yes"/>
<layer number="52" name="bDocu" color="7" fill="1" visible="yes" active="yes"/>
<layer number="90" name="Modules" color="5" fill="1" visible="yes" active="yes"/>
<layer number="91" name="Nets" color="2" fill="1" visible="yes" active="yes"/>
<layer number="92" name="Busses" color="1" fill="1" visible="yes" active="yes"/>
<layer number="93" name="Pins" color="2" fill="1" visible="no" active="yes"/>
<layer number="94" name="Symbols" color="4" fill="1" visible="yes" active="yes"/>
<layer number="95" name="Names" color="7" fill="1" visible="yes" active="yes"/>
<layer number="96" name="Values" color="7" fill="1" visible="yes" active="yes"/>
<layer number="97" name="Info" color="7" fill="1" visible="yes" active="yes"/>
<layer number="98" name="Guide" color="6" fill="1" visible="yes" active="yes"/>
</layers>
<library>
<description>&lt;ON SEMICONDUCTOR - 1N5358BG - DIODE, ZENER, 22V, 5W&lt;/b&gt;&lt;p&gt;
&lt;author&gt;Created by SamacSys&lt;/author&gt;</description>
<packages>
<package name="DIOAD2260W109L864D349">
<description>&lt;b&gt;SURMETIC 40, AXIAL LEAD CASE 017AA−01 ISSUE O&lt;/b&gt;&lt;br&gt;
</description>
<pad name="1" x="0" y="0" drill="1.3" diameter="1.95"/>
<pad name="2" x="11.12" y="0" drill="1.3" diameter="1.95"/>
<text x="2.54" y="2.54" size="1.27" layer="25" align="center">&gt;NAME</text>
<text x="5.08" y="-2.54" size="1.27" layer="27" align="center">&gt;VALUE</text>
</package>
</packages>
<symbols>
<symbol name="1N5358BG">
<wire x1="5.08" y1="0" x2="10.16" y2="2.54" width="0.254" layer="94"/>
<wire x1="10.16" y1="-2.54" x2="10.16" y2="2.54" width="0.254" layer="94"/>
<wire x1="10.16" y1="-2.54" x2="5.08" y2="0" width="0.254" layer="94"/>
<wire x1="5.08" y1="2.032" x2="5.08" y2="0" width="0.254" layer="94"/>
<wire x1="5.08" y1="0" x2="5.08" y2="-2.032" width="0.254" layer="94"/>
<wire x1="5.08" y1="2.032" x2="6.096" y2="2.54" width="0.254" layer="94"/>
<wire x1="4.064" y1="-2.54" x2="5.08" y2="-2.032" width="0.254" layer="94"/>
<text x="10.16" y="8.89" size="1.778" layer="95">&gt;NAME</text>
<text x="10.16" y="6.35" size="1.778" layer="96">&gt;VALUE</text>
<pin name="1" x="-7.62" y="0" visible="pad" length="short"/>
<pin name="2" x="12.7" y="0" visible="pad" length="short" rot="R180"/>
<wire x1="0" y1="0" x2="-5.08" y2="-2.54" width="0.254" layer="94"/>
<wire x1="-5.08" y1="2.54" x2="-5.08" y2="-2.54" width="0.254" layer="94"/>
<wire x1="-5.08" y1="2.54" x2="0" y2="0" width="0.254" layer="94"/>
<wire x1="0" y1="-2.032" x2="0" y2="0" width="0.254" layer="94"/>
<wire x1="0" y1="0" x2="0" y2="2.032" width="0.254" layer="94"/>
<wire x1="0" y1="-2.032" x2="-1.016" y2="-2.54" width="0.254" layer="94"/>
<wire x1="1.016" y1="2.54" x2="0" y2="2.032" width="0.254" layer="94"/>
<wire x1="0" y1="0" x2="5.08" y2="0" width="0.254" layer="94"/>
</symbol>
</symbols>
<devicesets>
<deviceset name="1N5358BG" prefix="Z">
<description>&lt;b&gt;ON SEMICONDUCTOR - 1N5358BG - DIODE, ZENER, 22V, 5W&lt;/b&gt;&lt;p&gt;
Source: &lt;a href="http://www.onsemi.com/pub/Collateral/1N5333B-D.PDF"&gt; Datasheet &lt;/a&gt;</description>
<gates>
<gate name="G$1" symbol="1N5358BG" x="0" y="0"/>
</gates>
<devices>
<device name="" package="DIOAD2260W109L864D349">
<connects>
<connect gate="G$1" pin="1" pad="1"/>
<connect gate="G$1" pin="2" pad="2"/>
</connects>
<technologies>
<technology name="">
<attribute name="ARROW_PART_NUMBER" value="1N5358BG" constant="no"/>
<attribute name="ARROW_PRICE-STOCK" value="" constant="no"/>
<attribute name="DESCRIPTION" value="ON SEMICONDUCTOR - 1N5358BG - DIODE, ZENER, 22V, 5W" constant="no"/>
<attribute name="HEIGHT" value="mm" constant="no"/>
<attribute name="MANUFACTURER_NAME" value="ON Semiconductor" constant="no"/>
<attribute name="MANUFACTURER_PART_NUMBER" value="1N5358BG" constant="no"/>
<attribute name="RS_PART_NUMBER" value="" constant="no"/>
<attribute name="RS_PRICE-STOCK" value="" constant="no"/>
</technology>
</technologies>
</device>
</devices>
</deviceset>
</devicesets>
</library>
</drawing>
</eagle>
