<?xml version="1.0" encoding="utf-8"?>
<!DOCTYPE eagle SYSTEM "eagle.dtd">
<eagle version="8.4.3">
<drawing>
<settings>
<setting alwaysvectorfont="no"/>
<setting keepoldvectorfont="yes"/>
<setting verticaltext="up"/>
</settings>
<grid distance="50" unitdist="mil" unit="mil" style="lines" multiple="1" display="yes" altdistance="5" altunitdist="mil" altunit="mil"/>
<layers>
<layer number="1" name="Top" color="4" fill="1" visible="yes" active="yes"/>
<layer number="16" name="Bottom" color="1" fill="1" visible="yes" active="yes"/>
<layer number="17" name="Pads" color="2" fill="1" visible="yes" active="yes"/>
<layer number="18" name="Vias" color="2" fill="1" visible="yes" active="yes"/>
<layer number="19" name="Unrouted" color="6" fill="1" visible="yes" active="yes"/>
<layer number="20" name="Dimension" color="15" fill="1" visible="yes" active="yes"/>
<layer number="21" name="tPlace" color="7" fill="1" visible="yes" active="yes"/>
<layer number="22" name="bPlace" color="7" fill="1" visible="yes" active="yes"/>
<layer number="23" name="tOrigins" color="15" fill="1" visible="yes" active="yes"/>
<layer number="24" name="bOrigins" color="15" fill="1" visible="yes" active="yes"/>
<layer number="25" name="tNames" color="7" fill="1" visible="yes" active="yes"/>
<layer number="26" name="bNames" color="7" fill="1" visible="yes" active="yes"/>
<layer number="27" name="tValues" color="7" fill="1" visible="yes" active="yes"/>
<layer number="28" name="bValues" color="7" fill="1" visible="yes" active="yes"/>
<layer number="29" name="tStop" color="7" fill="3" visible="no" active="yes"/>
<layer number="30" name="bStop" color="7" fill="6" visible="no" active="yes"/>
<layer number="31" name="tCream" color="7" fill="4" visible="no" active="yes"/>
<layer number="32" name="bCream" color="7" fill="5" visible="no" active="yes"/>
<layer number="33" name="tFinish" color="6" fill="3" visible="no" active="yes"/>
<layer number="34" name="bFinish" color="6" fill="6" visible="no" active="yes"/>
<layer number="35" name="tGlue" color="7" fill="4" visible="no" active="yes"/>
<layer number="36" name="bGlue" color="7" fill="5" visible="no" active="yes"/>
<layer number="37" name="tTest" color="7" fill="1" visible="no" active="yes"/>
<layer number="38" name="bTest" color="7" fill="1" visible="no" active="yes"/>
<layer number="39" name="tKeepout" color="4" fill="11" visible="yes" active="yes"/>
<layer number="40" name="bKeepout" color="1" fill="11" visible="yes" active="yes"/>
<layer number="41" name="tRestrict" color="4" fill="10" visible="yes" active="yes"/>
<layer number="42" name="bRestrict" color="1" fill="10" visible="yes" active="yes"/>
<layer number="43" name="vRestrict" color="2" fill="10" visible="yes" active="yes"/>
<layer number="44" name="Drills" color="7" fill="1" visible="no" active="yes"/>
<layer number="45" name="Holes" color="7" fill="1" visible="no" active="yes"/>
<layer number="46" name="Milling" color="3" fill="1" visible="no" active="yes"/>
<layer number="47" name="Measures" color="7" fill="1" visible="no" active="yes"/>
<layer number="48" name="Document" color="7" fill="1" visible="yes" active="yes"/>
<layer number="49" name="Reference" color="7" fill="1" visible="yes" active="yes"/>
<layer number="51" name="tDocu" color="7" fill="1" visible="yes" active="yes"/>
<layer number="52" name="bDocu" color="7" fill="1" visible="yes" active="yes"/>
<layer number="90" name="Modules" color="5" fill="1" visible="yes" active="yes"/>
<layer number="91" name="Nets" color="2" fill="1" visible="yes" active="yes"/>
<layer number="92" name="Busses" color="1" fill="1" visible="yes" active="yes"/>
<layer number="93" name="Pins" color="2" fill="1" visible="no" active="yes"/>
<layer number="94" name="Symbols" color="4" fill="1" visible="yes" active="yes"/>
<layer number="95" name="Names" color="7" fill="1" visible="yes" active="yes"/>
<layer number="96" name="Values" color="7" fill="1" visible="yes" active="yes"/>
<layer number="97" name="Info" color="7" fill="1" visible="yes" active="yes"/>
<layer number="98" name="Guide" color="6" fill="1" visible="yes" active="yes"/>
</layers>
<library>
<description>&lt;Lite-On 1N5819 Diode, 40V 1A, 2-Pin DO-204AL&lt;/b&gt;&lt;p&gt;
&lt;author&gt;Created by SamacSys&lt;/author&gt;</description>
<packages>
<package name="DIOAD1405W86L465D235">
<description>&lt;b&gt;DO-41&lt;/b&gt;&lt;br&gt;
</description>
<pad name="1" x="0" y="0" drill="1.05" diameter="1.575" shape="square"/>
<pad name="2" x="4.35" y="0" drill="1.05" diameter="1.575"/>
<text x="5.08" y="2.54" size="1.27" layer="25" align="center">&gt;NAME</text>
<text x="8.89" y="-2.54" size="1.27" layer="27" align="center">&gt;VALUE</text>
<wire x1="1.085" y1="0.875" x2="3.265" y2="0.875" width="0.2" layer="21"/>
<wire x1="3.265" y1="0.875" x2="3.265" y2="-0.875" width="0.2" layer="21"/>
<wire x1="3.265" y1="-0.875" x2="1.085" y2="-0.875" width="0.2" layer="21"/>
<wire x1="1.085" y1="-0.875" x2="1.085" y2="0.875" width="0.2" layer="21"/>
<wire x1="1.4" y1="0.7" x2="1.4" y2="-0.7" width="0.127" layer="21"/>
</package>
</packages>
<symbols>
<symbol name="1N5819">
<wire x1="5.08" y1="0" x2="10.16" y2="2.54" width="0.254" layer="94"/>
<wire x1="10.16" y1="-2.54" x2="10.16" y2="2.54" width="0.254" layer="94"/>
<wire x1="10.16" y1="-2.54" x2="5.08" y2="0" width="0.254" layer="94"/>
<wire x1="5.08" y1="2.54" x2="5.08" y2="-2.54" width="0.254" layer="94"/>
<text x="11.43" y="5.08" size="1.778" layer="95" align="center-left">&gt;NAME</text>
<text x="11.43" y="2.54" size="1.778" layer="96" align="center-left">&gt;VALUE</text>
<pin name="K" x="0" y="0" visible="pad" length="middle"/>
<pin name="A" x="15.24" y="0" visible="pad" length="middle" rot="R180"/>
</symbol>
</symbols>
<devicesets>
<deviceset name="1N5819" prefix="D">
<description>&lt;b&gt;Lite-On 1N5819 Diode, 40V 1A, 2-Pin DO-204AL&lt;/b&gt;&lt;p&gt;
Source: &lt;a href="https://docs-emea.rs-online.com/webdocs/0e32/0900766b80e32e25.pdf"&gt; Datasheet &lt;/a&gt;</description>
<gates>
<gate name="G$1" symbol="1N5819" x="0" y="0"/>
</gates>
<devices>
<device name="" package="DIOAD1405W86L465D235">
<connects>
<connect gate="G$1" pin="A" pad="2"/>
<connect gate="G$1" pin="K" pad="1"/>
</connects>
<technologies>
<technology name="">
<attribute name="ARROW_PART_NUMBER" value="1N5819" constant="no"/>
<attribute name="ARROW_PRICE-STOCK" value="http://uk.rs-online.com/web/p/products/7009896P" constant="no"/>
<attribute name="DESCRIPTION" value="Lite-On 1N5819 Diode, 40V 1A, 2-Pin DO-204AL" constant="no"/>
<attribute name="HEIGHT" value="mm" constant="no"/>
<attribute name="MANUFACTURER_NAME" value="Lite-On" constant="no"/>
<attribute name="MANUFACTURER_PART_NUMBER" value="1N5819" constant="no"/>
<attribute name="RS_PART_NUMBER" value="7009896P" constant="no"/>
<attribute name="RS_PRICE-STOCK" value="http://uk.rs-online.com/web/p/products/7009896P" constant="no"/>
</technology>
</technologies>
</device>
</devices>
</deviceset>
</devicesets>
</library>
</drawing>
</eagle>
