<?xml version="1.0" encoding="utf-8"?>
<!DOCTYPE eagle SYSTEM "eagle.dtd">
<eagle version="8.4.3">
<drawing>
<settings>
<setting alwaysvectorfont="no"/>
<setting verticaltext="up"/>
</settings>
<grid distance="50" unitdist="mil" unit="mm" style="lines" multiple="1" display="yes" altdistance="5" altunitdist="mil" altunit="mil"/>
<layers>
<layer number="1" name="Top" color="4" fill="1" visible="yes" active="yes"/>
<layer number="16" name="Bottom" color="1" fill="1" visible="yes" active="yes"/>
<layer number="17" name="Pads" color="2" fill="1" visible="yes" active="yes"/>
<layer number="18" name="Vias" color="2" fill="1" visible="yes" active="yes"/>
<layer number="19" name="Unrouted" color="6" fill="1" visible="yes" active="yes"/>
<layer number="20" name="Dimension" color="24" fill="1" visible="yes" active="yes"/>
<layer number="21" name="tPlace" color="7" fill="1" visible="yes" active="yes"/>
<layer number="22" name="bPlace" color="7" fill="1" visible="yes" active="yes"/>
<layer number="23" name="tOrigins" color="15" fill="1" visible="yes" active="yes"/>
<layer number="24" name="bOrigins" color="15" fill="1" visible="yes" active="yes"/>
<layer number="25" name="tNames" color="7" fill="1" visible="yes" active="yes"/>
<layer number="26" name="bNames" color="7" fill="1" visible="yes" active="yes"/>
<layer number="27" name="tValues" color="7" fill="1" visible="yes" active="yes"/>
<layer number="28" name="bValues" color="7" fill="1" visible="yes" active="yes"/>
<layer number="29" name="tStop" color="7" fill="3" visible="no" active="yes"/>
<layer number="30" name="bStop" color="7" fill="6" visible="no" active="yes"/>
<layer number="31" name="tCream" color="7" fill="4" visible="no" active="yes"/>
<layer number="32" name="bCream" color="7" fill="5" visible="no" active="yes"/>
<layer number="33" name="tFinish" color="6" fill="3" visible="no" active="yes"/>
<layer number="34" name="bFinish" color="6" fill="6" visible="no" active="yes"/>
<layer number="35" name="tGlue" color="7" fill="4" visible="no" active="yes"/>
<layer number="36" name="bGlue" color="7" fill="5" visible="no" active="yes"/>
<layer number="37" name="tTest" color="7" fill="1" visible="no" active="yes"/>
<layer number="38" name="bTest" color="7" fill="1" visible="no" active="yes"/>
<layer number="39" name="tKeepout" color="4" fill="11" visible="yes" active="yes"/>
<layer number="40" name="bKeepout" color="1" fill="11" visible="yes" active="yes"/>
<layer number="41" name="tRestrict" color="4" fill="10" visible="yes" active="yes"/>
<layer number="42" name="bRestrict" color="1" fill="10" visible="yes" active="yes"/>
<layer number="43" name="vRestrict" color="2" fill="10" visible="yes" active="yes"/>
<layer number="44" name="Drills" color="7" fill="1" visible="no" active="yes"/>
<layer number="45" name="Holes" color="7" fill="1" visible="yes" active="yes"/>
<layer number="46" name="Milling" color="3" fill="1" visible="no" active="yes"/>
<layer number="47" name="Measures" color="7" fill="1" visible="no" active="yes"/>
<layer number="48" name="Document" color="7" fill="1" visible="yes" active="yes"/>
<layer number="49" name="Reference" color="7" fill="1" visible="yes" active="yes"/>
<layer number="51" name="tDocu" color="7" fill="1" visible="yes" active="yes"/>
<layer number="52" name="bDocu" color="7" fill="1" visible="yes" active="yes"/>
<layer number="88" name="SimResults" color="9" fill="1" visible="yes" active="yes"/>
<layer number="89" name="SimProbes" color="9" fill="1" visible="yes" active="yes"/>
<layer number="90" name="Modules" color="5" fill="1" visible="yes" active="yes"/>
<layer number="91" name="Nets" color="2" fill="1" visible="yes" active="yes"/>
<layer number="92" name="Busses" color="1" fill="1" visible="yes" active="yes"/>
<layer number="93" name="Pins" color="2" fill="1" visible="yes" active="yes"/>
<layer number="94" name="Symbols" color="4" fill="1" visible="yes" active="yes"/>
<layer number="95" name="Names" color="7" fill="1" visible="yes" active="yes"/>
<layer number="96" name="Values" color="7" fill="1" visible="yes" active="yes"/>
<layer number="97" name="Info" color="7" fill="1" visible="yes" active="yes"/>
<layer number="98" name="Guide" color="6" fill="1" visible="yes" active="yes"/>
</layers>
<library>
<packages>
<package name="B64290L0615X087">
<pad name="1" x="0" y="0" drill="2"/>
<pad name="2" x="4.4" y="0" drill="2"/>
<pad name="3" x="9.9" y="0" drill="2"/>
<pad name="4" x="14.3" y="0" drill="2"/>
<pad name="5" x="19.8" y="0" drill="2"/>
<pad name="6" x="24.2" y="0" drill="2"/>
<pad name="7" x="29.7" y="0" drill="2"/>
<pad name="8" x="34.1" y="0" drill="2"/>
<pad name="9" x="14.27" y="-24.8" drill="2"/>
<pad name="10" x="19.77" y="-24.8" drill="2"/>
<pad name="11" x="-25" y="-3.5" drill="3"/>
<pad name="12" x="63" y="18.02" drill="3"/>
<hole x="9.15" y="-12.8" drill="5"/>
<hole x="24.95" y="-12.8" drill="5"/>
</package>
</packages>
<symbols>
<symbol name="B64290L0615X087">
<pin name="1" x="-1.27" y="3.175" visible="off" length="short" rot="R270"/>
<pin name="2" x="6.35" y="3.175" visible="off" length="short" rot="R270"/>
<pin name="3" x="9.525" y="3.175" visible="off" length="short" rot="R270"/>
<pin name="4" x="17.145" y="3.175" visible="off" length="short" rot="R270"/>
<pin name="5" x="20.32" y="3.175" visible="off" length="short" rot="R270"/>
<pin name="6" x="27.94" y="3.175" visible="off" length="short" rot="R270"/>
<pin name="7" x="31.115" y="3.175" visible="off" length="short" rot="R270"/>
<pin name="8" x="38.735" y="3.175" visible="off" length="short" rot="R270"/>
<pin name="10" x="11.43" y="-10.795" visible="off" length="short" rot="R90"/>
<pin name="9" x="3.81" y="-10.795" visible="off" length="short" rot="R90"/>
<pin name="12" x="33.02" y="-10.795" visible="off" length="short" rot="R90"/>
<pin name="11" x="25.4" y="-10.795" visible="off" length="short" rot="R90"/>
<wire x1="-1.27" y1="0.635" x2="-1.27" y2="0" width="0.254" layer="94"/>
<wire x1="-1.27" y1="0" x2="0" y2="-1.27" width="0.254" layer="94" curve="90"/>
<wire x1="0" y1="-1.27" x2="1.27" y2="0" width="0.254" layer="94" curve="90"/>
<wire x1="1.27" y1="0.635" x2="1.27" y2="0" width="0.254" layer="94"/>
<wire x1="1.27" y1="0" x2="2.54" y2="-1.27" width="0.254" layer="94" curve="90"/>
<wire x1="2.54" y1="-1.27" x2="3.81" y2="0" width="0.254" layer="94" curve="90"/>
<wire x1="3.81" y1="0.635" x2="3.81" y2="0" width="0.254" layer="94"/>
<wire x1="3.81" y1="0" x2="5.08" y2="-1.27" width="0.254" layer="94" curve="90"/>
<wire x1="5.08" y1="-1.27" x2="6.35" y2="0" width="0.254" layer="94" curve="90"/>
<wire x1="6.35" y1="0" x2="6.35" y2="0.635" width="0.254" layer="94"/>
<wire x1="9.525" y1="0.635" x2="9.525" y2="0" width="0.254" layer="94"/>
<wire x1="9.525" y1="0" x2="10.795" y2="-1.27" width="0.254" layer="94" curve="90"/>
<wire x1="10.795" y1="-1.27" x2="12.065" y2="0" width="0.254" layer="94" curve="90"/>
<wire x1="12.065" y1="0.635" x2="12.065" y2="0" width="0.254" layer="94"/>
<wire x1="12.065" y1="0" x2="13.335" y2="-1.27" width="0.254" layer="94" curve="90"/>
<wire x1="13.335" y1="-1.27" x2="14.605" y2="0" width="0.254" layer="94" curve="90"/>
<wire x1="14.605" y1="0.635" x2="14.605" y2="0" width="0.254" layer="94"/>
<wire x1="14.605" y1="0" x2="15.875" y2="-1.27" width="0.254" layer="94" curve="90"/>
<wire x1="15.875" y1="-1.27" x2="17.145" y2="0" width="0.254" layer="94" curve="90"/>
<wire x1="17.145" y1="0" x2="17.145" y2="0.635" width="0.254" layer="94"/>
<wire x1="20.32" y1="0.635" x2="20.32" y2="0" width="0.254" layer="94"/>
<wire x1="20.32" y1="0" x2="21.59" y2="-1.27" width="0.254" layer="94" curve="90"/>
<wire x1="21.59" y1="-1.27" x2="22.86" y2="0" width="0.254" layer="94" curve="90"/>
<wire x1="22.86" y1="0.635" x2="22.86" y2="0" width="0.254" layer="94"/>
<wire x1="22.86" y1="0" x2="24.13" y2="-1.27" width="0.254" layer="94" curve="90"/>
<wire x1="24.13" y1="-1.27" x2="25.4" y2="0" width="0.254" layer="94" curve="90"/>
<wire x1="25.4" y1="0.635" x2="25.4" y2="0" width="0.254" layer="94"/>
<wire x1="25.4" y1="0" x2="26.67" y2="-1.27" width="0.254" layer="94" curve="90"/>
<wire x1="26.67" y1="-1.27" x2="27.94" y2="0" width="0.254" layer="94" curve="90"/>
<wire x1="27.94" y1="0" x2="27.94" y2="0.635" width="0.254" layer="94"/>
<wire x1="31.115" y1="0.635" x2="31.115" y2="0" width="0.254" layer="94"/>
<wire x1="31.115" y1="0" x2="32.385" y2="-1.27" width="0.254" layer="94" curve="90"/>
<wire x1="32.385" y1="-1.27" x2="33.655" y2="0" width="0.254" layer="94" curve="90"/>
<wire x1="33.655" y1="0.635" x2="33.655" y2="0" width="0.254" layer="94"/>
<wire x1="33.655" y1="0" x2="34.925" y2="-1.27" width="0.254" layer="94" curve="90"/>
<wire x1="34.925" y1="-1.27" x2="36.195" y2="0" width="0.254" layer="94" curve="90"/>
<wire x1="36.195" y1="0.635" x2="36.195" y2="0" width="0.254" layer="94"/>
<wire x1="36.195" y1="0" x2="37.465" y2="-1.27" width="0.254" layer="94" curve="90"/>
<wire x1="37.465" y1="-1.27" x2="38.735" y2="0" width="0.254" layer="94" curve="90"/>
<wire x1="38.735" y1="0" x2="38.735" y2="0.635" width="0.254" layer="94"/>
<wire x1="11.43" y1="-8.255" x2="11.43" y2="-7.62" width="0.254" layer="94"/>
<wire x1="11.43" y1="-7.62" x2="10.16" y2="-6.35" width="0.254" layer="94" curve="90"/>
<wire x1="10.16" y1="-6.35" x2="8.89" y2="-7.62" width="0.254" layer="94" curve="90"/>
<wire x1="8.89" y1="-8.255" x2="8.89" y2="-7.62" width="0.254" layer="94"/>
<wire x1="8.89" y1="-7.62" x2="7.62" y2="-6.35" width="0.254" layer="94" curve="90"/>
<wire x1="7.62" y1="-6.35" x2="6.35" y2="-7.62" width="0.254" layer="94" curve="90"/>
<wire x1="6.35" y1="-8.255" x2="6.35" y2="-7.62" width="0.254" layer="94"/>
<wire x1="6.35" y1="-7.62" x2="5.08" y2="-6.35" width="0.254" layer="94" curve="90"/>
<wire x1="5.08" y1="-6.35" x2="3.81" y2="-7.62" width="0.254" layer="94" curve="90"/>
<wire x1="3.81" y1="-7.62" x2="3.81" y2="-8.255" width="0.254" layer="94"/>
<wire x1="33.02" y1="-8.255" x2="33.02" y2="-7.62" width="0.254" layer="94"/>
<wire x1="33.02" y1="-7.62" x2="31.75" y2="-6.35" width="0.254" layer="94" curve="90"/>
<wire x1="31.75" y1="-6.35" x2="30.48" y2="-7.62" width="0.254" layer="94" curve="90"/>
<wire x1="30.48" y1="-8.255" x2="30.48" y2="-7.62" width="0.254" layer="94"/>
<wire x1="30.48" y1="-7.62" x2="29.21" y2="-6.35" width="0.254" layer="94" curve="90"/>
<wire x1="29.21" y1="-6.35" x2="27.94" y2="-7.62" width="0.254" layer="94" curve="90"/>
<wire x1="27.94" y1="-8.255" x2="27.94" y2="-7.62" width="0.254" layer="94"/>
<wire x1="27.94" y1="-7.62" x2="26.67" y2="-6.35" width="0.254" layer="94" curve="90"/>
<wire x1="26.67" y1="-6.35" x2="25.4" y2="-7.62" width="0.254" layer="94" curve="90"/>
<wire x1="25.4" y1="-7.62" x2="25.4" y2="-8.255" width="0.254" layer="94"/>
<wire x1="0" y1="-3.175" x2="37.465" y2="-3.175" width="0.254" layer="94"/>
<wire x1="0" y1="-4.445" x2="37.465" y2="-4.445" width="0.254" layer="94"/>
<text x="-2.54" y="7.62" size="1.778" layer="95">&gt;NAME</text>
<text x="27.94" y="-15.24" size="1.778" layer="96">&gt;VALUE</text>
</symbol>
</symbols>
<devicesets>
<deviceset name="B64290L0615X087" prefix="FT">
<gates>
<gate name="G$1" symbol="B64290L0615X087" x="0" y="-2.54"/>
</gates>
<devices>
<device name="" package="B64290L0615X087">
<connects>
<connect gate="G$1" pin="1" pad="1"/>
<connect gate="G$1" pin="10" pad="10"/>
<connect gate="G$1" pin="11" pad="11"/>
<connect gate="G$1" pin="12" pad="12"/>
<connect gate="G$1" pin="2" pad="2"/>
<connect gate="G$1" pin="3" pad="3"/>
<connect gate="G$1" pin="4" pad="4"/>
<connect gate="G$1" pin="5" pad="5"/>
<connect gate="G$1" pin="6" pad="6"/>
<connect gate="G$1" pin="7" pad="7"/>
<connect gate="G$1" pin="8" pad="8"/>
<connect gate="G$1" pin="9" pad="9"/>
</connects>
<technologies>
<technology name=""/>
</technologies>
</device>
</devices>
</deviceset>
</devicesets>
</library>
</drawing>
</eagle>
