<?xml version="1.0" encoding="utf-8"?>
<!DOCTYPE eagle SYSTEM "eagle.dtd">
<eagle version="8.4.3">
<drawing>
<settings>
<setting alwaysvectorfont="no"/>
<setting keepoldvectorfont="yes"/>
<setting verticaltext="up"/>
</settings>
<grid distance="0.1" unitdist="inch" unit="inch" style="lines" multiple="1" display="no" altdistance="0.01" altunitdist="inch" altunit="inch"/>
<layers>
<layer number="1" name="Top" color="4" fill="1" visible="yes" active="yes"/>
<layer number="16" name="Bottom" color="1" fill="1" visible="yes" active="yes"/>
<layer number="17" name="Pads" color="2" fill="1" visible="yes" active="yes"/>
<layer number="18" name="Vias" color="2" fill="1" visible="yes" active="yes"/>
<layer number="19" name="Unrouted" color="6" fill="1" visible="yes" active="yes"/>
<layer number="20" name="Dimension" color="15" fill="1" visible="yes" active="yes"/>
<layer number="21" name="tPlace" color="7" fill="1" visible="yes" active="yes"/>
<layer number="22" name="bPlace" color="7" fill="1" visible="yes" active="yes"/>
<layer number="23" name="tOrigins" color="15" fill="1" visible="yes" active="yes"/>
<layer number="24" name="bOrigins" color="15" fill="1" visible="yes" active="yes"/>
<layer number="25" name="tNames" color="7" fill="1" visible="yes" active="yes"/>
<layer number="26" name="bNames" color="7" fill="1" visible="yes" active="yes"/>
<layer number="27" name="tValues" color="7" fill="1" visible="yes" active="yes"/>
<layer number="28" name="bValues" color="7" fill="1" visible="yes" active="yes"/>
<layer number="29" name="tStop" color="7" fill="3" visible="no" active="yes"/>
<layer number="30" name="bStop" color="7" fill="6" visible="no" active="yes"/>
<layer number="31" name="tCream" color="7" fill="4" visible="no" active="yes"/>
<layer number="32" name="bCream" color="7" fill="5" visible="no" active="yes"/>
<layer number="33" name="tFinish" color="6" fill="3" visible="no" active="yes"/>
<layer number="34" name="bFinish" color="6" fill="6" visible="no" active="yes"/>
<layer number="35" name="tGlue" color="7" fill="4" visible="no" active="yes"/>
<layer number="36" name="bGlue" color="7" fill="5" visible="no" active="yes"/>
<layer number="37" name="tTest" color="7" fill="1" visible="no" active="yes"/>
<layer number="38" name="bTest" color="7" fill="1" visible="no" active="yes"/>
<layer number="39" name="tKeepout" color="4" fill="11" visible="yes" active="yes"/>
<layer number="40" name="bKeepout" color="1" fill="11" visible="yes" active="yes"/>
<layer number="41" name="tRestrict" color="4" fill="10" visible="yes" active="yes"/>
<layer number="42" name="bRestrict" color="1" fill="10" visible="yes" active="yes"/>
<layer number="43" name="vRestrict" color="2" fill="10" visible="yes" active="yes"/>
<layer number="44" name="Drills" color="7" fill="1" visible="no" active="yes"/>
<layer number="45" name="Holes" color="7" fill="1" visible="no" active="yes"/>
<layer number="46" name="Milling" color="3" fill="1" visible="no" active="yes"/>
<layer number="47" name="Measures" color="7" fill="1" visible="no" active="yes"/>
<layer number="48" name="Document" color="7" fill="1" visible="yes" active="yes"/>
<layer number="49" name="Reference" color="7" fill="1" visible="yes" active="yes"/>
<layer number="50" name="dxf" color="7" fill="1" visible="no" active="no"/>
<layer number="51" name="tDocu" color="7" fill="1" visible="yes" active="yes"/>
<layer number="52" name="bDocu" color="7" fill="1" visible="yes" active="yes"/>
<layer number="53" name="tGND_GNDA" color="7" fill="9" visible="no" active="no"/>
<layer number="54" name="bGND_GNDA" color="1" fill="9" visible="no" active="no"/>
<layer number="56" name="wert" color="7" fill="1" visible="no" active="no"/>
<layer number="57" name="tCAD" color="7" fill="1" visible="no" active="no"/>
<layer number="59" name="tCarbon" color="7" fill="1" visible="no" active="no"/>
<layer number="60" name="bCarbon" color="7" fill="1" visible="no" active="no"/>
<layer number="90" name="Modules" color="5" fill="1" visible="yes" active="yes"/>
<layer number="91" name="Nets" color="2" fill="1" visible="yes" active="yes"/>
<layer number="92" name="Busses" color="1" fill="1" visible="yes" active="yes"/>
<layer number="93" name="Pins" color="2" fill="1" visible="no" active="yes"/>
<layer number="94" name="Symbols" color="4" fill="1" visible="yes" active="yes"/>
<layer number="95" name="Names" color="7" fill="1" visible="yes" active="yes"/>
<layer number="96" name="Values" color="7" fill="1" visible="yes" active="yes"/>
<layer number="97" name="Info" color="7" fill="1" visible="yes" active="yes"/>
<layer number="98" name="Guide" color="6" fill="1" visible="yes" active="yes"/>
<layer number="99" name="SpiceOrder" color="7" fill="1" visible="no" active="no"/>
<layer number="100" name="Muster" color="7" fill="1" visible="no" active="no"/>
<layer number="101" name="Patch_Top" color="12" fill="4" visible="no" active="yes"/>
<layer number="102" name="Vscore" color="7" fill="1" visible="no" active="yes"/>
<layer number="103" name="fp3" color="7" fill="1" visible="no" active="yes"/>
<layer number="104" name="Name" color="7" fill="1" visible="no" active="yes"/>
<layer number="105" name="Beschreib" color="9" fill="1" visible="no" active="yes"/>
<layer number="106" name="BGA-Top" color="4" fill="1" visible="no" active="yes"/>
<layer number="107" name="BD-Top" color="5" fill="1" visible="no" active="yes"/>
<layer number="108" name="fp8" color="7" fill="1" visible="no" active="yes"/>
<layer number="109" name="fp9" color="7" fill="1" visible="no" active="yes"/>
<layer number="110" name="fp0" color="7" fill="1" visible="no" active="yes"/>
<layer number="111" name="LPC17xx" color="7" fill="1" visible="no" active="yes"/>
<layer number="112" name="tSilk" color="7" fill="1" visible="no" active="yes"/>
<layer number="113" name="ReferenceLS" color="7" fill="1" visible="no" active="no"/>
<layer number="116" name="Patch_BOT" color="9" fill="4" visible="no" active="yes"/>
<layer number="118" name="Rect_Pads" color="7" fill="1" visible="no" active="no"/>
<layer number="121" name="_tsilk" color="7" fill="1" visible="no" active="yes"/>
<layer number="122" name="_bsilk" color="7" fill="1" visible="no" active="yes"/>
<layer number="123" name="tTestmark" color="7" fill="1" visible="no" active="yes"/>
<layer number="124" name="bTestmark" color="7" fill="1" visible="no" active="yes"/>
<layer number="125" name="_tNames" color="7" fill="1" visible="no" active="yes"/>
<layer number="126" name="_bNames" color="7" fill="1" visible="no" active="yes"/>
<layer number="127" name="_tValues" color="7" fill="1" visible="no" active="yes"/>
<layer number="128" name="_bValues" color="7" fill="1" visible="no" active="yes"/>
<layer number="129" name="Mask" color="7" fill="1" visible="yes" active="yes"/>
<layer number="131" name="tAdjust" color="7" fill="1" visible="no" active="yes"/>
<layer number="132" name="bAdjust" color="7" fill="1" visible="no" active="yes"/>
<layer number="144" name="Drill_legend" color="7" fill="1" visible="no" active="yes"/>
<layer number="150" name="Notes" color="7" fill="1" visible="no" active="yes"/>
<layer number="151" name="HeatSink" color="7" fill="1" visible="no" active="yes"/>
<layer number="152" name="_bDocu" color="7" fill="1" visible="no" active="yes"/>
<layer number="153" name="FabDoc1" color="6" fill="1" visible="no" active="no"/>
<layer number="154" name="FabDoc2" color="2" fill="1" visible="no" active="no"/>
<layer number="155" name="FabDoc3" color="7" fill="15" visible="no" active="no"/>
<layer number="199" name="Contour" color="7" fill="1" visible="no" active="yes"/>
<layer number="200" name="200bmp" color="1" fill="10" visible="no" active="yes"/>
<layer number="201" name="201bmp" color="2" fill="1" visible="no" active="no"/>
<layer number="202" name="202bmp" color="3" fill="1" visible="no" active="no"/>
<layer number="203" name="203bmp" color="4" fill="10" visible="no" active="yes"/>
<layer number="204" name="204bmp" color="5" fill="10" visible="no" active="yes"/>
<layer number="205" name="205bmp" color="6" fill="10" visible="no" active="yes"/>
<layer number="206" name="206bmp" color="7" fill="10" visible="no" active="yes"/>
<layer number="207" name="207bmp" color="8" fill="10" visible="no" active="yes"/>
<layer number="208" name="208bmp" color="9" fill="10" visible="no" active="yes"/>
<layer number="209" name="209bmp" color="7" fill="1" visible="no" active="yes"/>
<layer number="210" name="210bmp" color="7" fill="1" visible="no" active="yes"/>
<layer number="211" name="211bmp" color="7" fill="1" visible="no" active="yes"/>
<layer number="212" name="212bmp" color="7" fill="1" visible="no" active="yes"/>
<layer number="213" name="213bmp" color="7" fill="1" visible="no" active="yes"/>
<layer number="214" name="214bmp" color="7" fill="1" visible="no" active="yes"/>
<layer number="215" name="215bmp" color="7" fill="1" visible="no" active="yes"/>
<layer number="216" name="216bmp" color="7" fill="1" visible="no" active="yes"/>
<layer number="217" name="217bmp" color="18" fill="1" visible="no" active="no"/>
<layer number="218" name="218bmp" color="19" fill="1" visible="no" active="no"/>
<layer number="219" name="219bmp" color="20" fill="1" visible="no" active="no"/>
<layer number="220" name="220bmp" color="21" fill="1" visible="no" active="no"/>
<layer number="221" name="221bmp" color="22" fill="1" visible="no" active="no"/>
<layer number="222" name="222bmp" color="23" fill="1" visible="no" active="no"/>
<layer number="223" name="223bmp" color="24" fill="1" visible="no" active="no"/>
<layer number="224" name="224bmp" color="25" fill="1" visible="no" active="no"/>
<layer number="225" name="225bmp" color="7" fill="1" visible="yes" active="yes"/>
<layer number="226" name="226bmp" color="7" fill="1" visible="yes" active="yes"/>
<layer number="227" name="227bmp" color="7" fill="1" visible="yes" active="yes"/>
<layer number="228" name="228bmp" color="7" fill="1" visible="yes" active="yes"/>
<layer number="229" name="229bmp" color="7" fill="1" visible="yes" active="yes"/>
<layer number="230" name="230bmp" color="7" fill="1" visible="yes" active="yes"/>
<layer number="231" name="Eagle3D_PG1" color="7" fill="1" visible="no" active="no"/>
<layer number="232" name="Eagle3D_PG2" color="7" fill="1" visible="no" active="no"/>
<layer number="233" name="Eagle3D_PG3" color="7" fill="1" visible="no" active="no"/>
<layer number="248" name="Housing" color="7" fill="1" visible="no" active="yes"/>
<layer number="249" name="Edge" color="7" fill="1" visible="no" active="yes"/>
<layer number="250" name="Descript" color="7" fill="1" visible="no" active="no"/>
<layer number="251" name="SMDround" color="7" fill="1" visible="no" active="no"/>
<layer number="254" name="cooling" color="7" fill="1" visible="no" active="yes"/>
<layer number="255" name="routoute" color="7" fill="1" visible="yes" active="yes"/>
</layers>
<library>
<description>&lt;STP14NF10, N-channel MOSFET Transistor 15 A 100 V, 3-Pin TO-220&lt;/b&gt;&lt;p&gt;
&lt;author&gt;Created by SamacSys&lt;/author&gt;</description>
<packages>
<package name="TO270P460X1020X2008-3P">
<description>&lt;b&gt;TO-220 TYPE A&lt;/b&gt;&lt;br&gt;
</description>
<pad name="1" x="0" y="0" drill="1.32" diameter="1.98" shape="square"/>
<pad name="2" x="2.7" y="0" drill="1.32" diameter="1.98"/>
<pad name="3" x="5.4" y="0" drill="1.32" diameter="1.98"/>
<text x="0" y="0" size="1.27" layer="25" align="center">&gt;NAME</text>
<text x="0" y="0" size="1.27" layer="27" align="center">&gt;VALUE</text>
<wire x1="-2.75" y1="3.32" x2="8.15" y2="3.32" width="0.05" layer="51"/>
<wire x1="8.15" y1="3.32" x2="8.15" y2="-1.78" width="0.05" layer="51"/>
<wire x1="8.15" y1="-1.78" x2="-2.75" y2="-1.78" width="0.05" layer="51"/>
<wire x1="-2.75" y1="-1.78" x2="-2.75" y2="3.32" width="0.05" layer="51"/>
<wire x1="-2.5" y1="3.07" x2="7.9" y2="3.07" width="0.1" layer="51"/>
<wire x1="7.9" y1="3.07" x2="7.9" y2="-1.53" width="0.1" layer="51"/>
<wire x1="7.9" y1="-1.53" x2="-2.5" y2="-1.53" width="0.1" layer="51"/>
<wire x1="-2.5" y1="-1.53" x2="-2.5" y2="3.07" width="0.1" layer="51"/>
<wire x1="-2.5" y1="1.72" x2="-1.15" y2="3.07" width="0.1" layer="51"/>
<wire x1="7.9" y1="-1.53" x2="7.9" y2="3.07" width="0.2" layer="21"/>
<wire x1="7.9" y1="3.07" x2="-2.5" y2="3.07" width="0.2" layer="21"/>
<wire x1="-2.5" y1="3.07" x2="-2.5" y2="0" width="0.2" layer="21"/>
</package>
</packages>
<symbols>
<symbol name="STP14NF10">
<text x="16.51" y="7.62" size="1.778" layer="95" align="center-left">&gt;NAME</text>
<text x="16.51" y="5.08" size="1.778" layer="96" align="center-left">&gt;VALUE</text>
<wire x1="3.302" y1="3.302" x2="3.302" y2="2.54" width="0.254" layer="94"/>
<wire x1="3.302" y1="2.54" x2="3.302" y2="1.778" width="0.254" layer="94"/>
<wire x1="3.302" y1="5.715" x2="3.302" y2="5.08" width="0.254" layer="94"/>
<wire x1="3.302" y1="5.08" x2="3.302" y2="4.445" width="0.254" layer="94"/>
<wire x1="3.302" y1="2.54" x2="5.08" y2="2.54" width="0.1524" layer="94"/>
<wire x1="5.08" y1="2.54" x2="5.08" y2="0" width="0.1524" layer="94"/>
<wire x1="3.302" y1="0.635" x2="3.302" y2="0" width="0.254" layer="94"/>
<wire x1="3.302" y1="0" x2="3.302" y2="-0.635" width="0.254" layer="94"/>
<wire x1="2.54" y1="5.08" x2="2.54" y2="0" width="0.254" layer="94"/>
<wire x1="5.08" y1="0" x2="3.302" y2="0" width="0.1524" layer="94"/>
<wire x1="6.35" y1="5.08" x2="6.35" y2="3.048" width="0.1524" layer="94"/>
<wire x1="6.35" y1="3.048" x2="6.35" y2="0" width="0.1524" layer="94"/>
<wire x1="5.08" y1="0" x2="6.35" y2="0" width="0.1524" layer="94"/>
<wire x1="3.302" y1="5.08" x2="6.35" y2="5.08" width="0.1524" layer="94"/>
<wire x1="7.112" y1="3.302" x2="6.858" y2="3.048" width="0.1524" layer="94"/>
<wire x1="6.858" y1="3.048" x2="6.35" y2="3.048" width="0.1524" layer="94"/>
<wire x1="6.35" y1="3.048" x2="5.842" y2="3.048" width="0.1524" layer="94"/>
<wire x1="5.842" y1="3.048" x2="5.588" y2="2.794" width="0.1524" layer="94"/>
<circle x="5.08" y="0" radius="0.3592" width="0" layer="94"/>
<circle x="5.08" y="5.08" radius="0.3592" width="0" layer="94"/>
<text x="7.62" y="3.175" size="1.27" layer="95">&gt;NAME</text>
<text x="7.62" y="1.27" size="1.27" layer="96">&gt;VALUE</text>
<text x="31.115" y="-4.445" size="0.8128" layer="93">D</text>
<text x="31.115" y="-11.43" size="0.8128" layer="93">S</text>
<text x="26.67" y="-9.525" size="0.8128" layer="93">G</text>
<pin name="G" x="0" y="0" visible="pad" length="short"/>
<pin name="S" x="5.08" y="-2.54" visible="pad" length="short" rot="R90"/>
<pin name="D" x="5.08" y="7.62" visible="pad" length="short" rot="R270"/>
<polygon width="0.1524" layer="94">
<vertex x="6.35" y="3.048"/>
<vertex x="5.842" y="2.286"/>
<vertex x="6.858" y="2.286"/>
</polygon>
<polygon width="0.1524" layer="94">
<vertex x="3.556" y="2.54"/>
<vertex x="4.572" y="3.302"/>
<vertex x="4.572" y="1.778"/>
</polygon>
</symbol>
</symbols>
<devicesets>
<deviceset name="STP14NF10" prefix="IC">
<description>&lt;b&gt;STP14NF10, N-channel MOSFET Transistor 15 A 100 V, 3-Pin TO-220&lt;/b&gt;&lt;p&gt;
Source: &lt;a href="http://www.st.com/web/en/resource/technical/document/datasheet/CD00002419.pdf"&gt; Datasheet &lt;/a&gt;</description>
<gates>
<gate name="G$1" symbol="STP14NF10" x="0" y="0"/>
</gates>
<devices>
<device name="" package="TO270P460X1020X2008-3P">
<connects>
<connect gate="G$1" pin="D" pad="2"/>
<connect gate="G$1" pin="G" pad="1"/>
<connect gate="G$1" pin="S" pad="3"/>
</connects>
<technologies>
<technology name="">
<attribute name="ALLIED_NUMBER" value="70391288" constant="no"/>
<attribute name="ALLIED_PRICE-STOCK" value="http://www.alliedelec.com/stmicroelectronics-stp14nf10/70391288/" constant="no"/>
<attribute name="ARROW_PART_NUMBER" value="STP14NF10" constant="no"/>
<attribute name="ARROW_PRICE-STOCK" value="http://uk.rs-online.com/web/p/products/7146780P" constant="no"/>
<attribute name="DESCRIPTION" value="STP14NF10, N-channel MOSFET Transistor 15 A 100 V, 3-Pin TO-220" constant="no"/>
<attribute name="HEIGHT" value="4.6mm" constant="no"/>
<attribute name="MANUFACTURER_NAME" value="STMicroelectronics" constant="no"/>
<attribute name="MANUFACTURER_PART_NUMBER" value="STP14NF10" constant="no"/>
<attribute name="RS_PART_NUMBER" value="7146780P" constant="no"/>
<attribute name="RS_PRICE-STOCK" value="http://uk.rs-online.com/web/p/products/7146780P" constant="no"/>
</technology>
</technologies>
</device>
</devices>
</deviceset>
</devicesets>
</library>
</drawing>
</eagle>
